f_recursive
1 2 4 11 25 

f_tailrec
1 2 4 11 25 

f_looping
1 2 4 11 25 

f_recursive
1	44
2	81
3	132
4	192
5	276
6	403
7	607
8	951
9	1552
10	2624
11	4562
12	8647
13	15129
14	27022
15	48868
16	89018
17	164265
18	296120
19	535854
20	960222
21	1705371
22	2948696
23	4961205
24	8425844
25	14317240
26	25117844
27	45342582
28	81448092
29	149063384
30	272654539
f_tailrec
1	23
2	46
3	71
4	96
5	121
6	148
7	174
8	202
9	231
10	261
11	292
12	324
13	357
14	390
15	425
16	461
17	498
18	535
19	573
20	613
21	654
22	696
23	739
24	781
25	825
26	870
27	916
28	963
29	1011
30	1061
31	1116
32	1171
33	1227
34	1283
35	1340
36	1398
37	1457
38	1516
39	1576
40	1637
41	1698
42	1760
43	1823
44	1886
45	1951
46	2016
47	2082
48	2149
49	2217
50	2285
51	2355
52	2426
53	2498
54	2570
55	2644
56	2719
57	2794
58	2870
59	2948
60	3026
61	3106
62	3186
63	3267
64	3349
65	3433
66	3516
67	3601
68	3686
69	3774
70	3861
71	3950
72	4039
73	4129
74	4221
75	4313
76	4407
77	4501
78	4596
79	4693
80	4790
81	4888
82	4988
83	5088
84	5189
85	5291
86	5393
87	5497
88	5600
89	5706
90	5812
91	5919
92	6027
93	6136
94	6247
95	6357
96	6470
97	6583
98	6697
99	6812
100	6928
101	7045
102	7163
103	7282
104	7401
105	7522
106	7644
107	7766
108	7890
109	8014
110	8140
111	8265
112	8392
113	8520
114	8649
115	8780
116	8911
117	9043
118	9176
119	9310
120	9444
121	9580
122	9716
123	9854
124	9993
125	10132
126	10272
127	10412
128	10554
129	10697
130	10842
131	10987
132	11508
133	11665
134	11823
135	11981
136	12141
137	12395
138	12556
139	12719
140	12883
141	13047
142	13213
143	13379
144	13914
145	14071
146	14229
147	14389
148	14549
149	14712
150	14875
151	15038
152	15201
153	15367
154	15534
155	15701
156	15869
157	16038
158	16208
159	16379
160	16550
161	16724
162	16898
163	17073
164	17249
165	17426
166	17604
167	17783
168	17962
169	18143
170	18325
171	18508
172	18691
173	18875
174	19061
175	19247
176	19433
177	19622
178	19810
179	20000
180	20192
181	20384
182	20577
183	20771
184	20965
185	21161
186	21358
187	21555
188	21753
189	21953
190	22153
191	22354
192	22556
193	22761
194	22966
195	23172
196	23379
197	23586
198	23794
199	24002
200	24212
201	24423
202	24635
203	24847
204	25060
205	25274
206	25488
207	25704
208	25921
209	26139
210	26358
211	26578
212	26799
213	27021
214	27243
215	27466
216	27690
217	27915
218	28143
219	28371
220	28599
221	28829
222	29059
223	29290
224	29523
225	29756
226	29990
227	30226
228	30462
229	30698
230	30936
231	31175
232	31414
233	31655
234	31897
235	32139
236	32382
237	32627
238	32873
239	33119
240	33366
241	33615
242	33865
243	34114
244	34364
245	34616
246	34869
247	35123
248	35378
249	35634
250	35891
251	36148
252	36406
253	36665
254	36926
255	37188
256	37449
257	37712
258	37976
259	38241
260	38506
261	38774
262	39042
263	39311
264	39581
265	39852
266	40123
267	40395
268	40670
269	40945
270	41220
271	41497
272	41774
273	42053
274	42332
275	42613
276	42895
277	43176
278	43459
279	43742
280	44027
281	44313
282	44601
283	44889
284	45178
285	45468
286	45759
287	46050
288	46343
289	46637
290	46931
291	47226
292	47522
293	47819
294	48117
295	48416
296	48716
297	49017
298	49319
299	49622
300	49926
301	50231
302	50537
303	50843
304	51150
305	51458
306	51767
307	52078
308	52390
309	52701
310	53015
311	53329
312	53644
313	53960
314	54278
315	54595
316	54915
317	55235
318	55555
319	55877
320	56198
321	56522
322	56846
323	57172
324	57498
325	57825
326	58153
327	58483
328	59193
329	59546
330	59899
331	60255
332	60611
333	60968
334	61326
335	61686
336	62045
337	62407
338	62769
339	63133
340	63497
341	64227
342	64570
343	64914
344	65260
345	65606
346	65953
347	66301
348	66650
349	67000
350	67351
351	67702
352	68055
353	68408
354	68764
355	69120
356	69477
357	69834
358	70192
359	70551
360	70911
361	71272
362	71634
363	71996
364	72360
365	72724
366	73090
367	73457
368	73825
369	74192
370	74562
371	74933
372	75305
373	75677
374	76049
375	76423
376	76799
377	77176
378	77553
379	77931
380	78310
381	78690
382	79072
383	79454
384	79836
385	80221
386	80606
387	80992
388	81378
389	81765
390	82152
391	82542
392	82932
393	83323
394	83716
395	84109
396	84504
397	84899
398	85295
399	85692
400	86090
401	86489
402	86888
403	87288
404	87690
405	88092
406	88496
407	88900
408	89306
409	89712
410	90119
411	90527
412	90937
413	91347
414	91757
415	92168
416	92582
417	92996
418	93411
419	93826
420	94243
421	94660
422	95079
423	95499
424	95919
425	96341
426	96764
427	97187
428	97611
429	98036
430	98463
431	98889
432	99318
433	99747
434	100177
435	100609
436	101042
437	101475
438	101910
439	102345
440	102781
441	103217
442	103655
443	104094
444	104532
445	104973
446	105414
447	105856
448	106298
449	106742
450	107187
451	107632
452	108079
453	108526
454	108975
455	109425
456	109876
457	110327
458	110780
459	111234
460	111688
461	112143
462	112600
463	113057
464	113516
465	113975
466	114435
467	114896
468	115357
469	115819
470	116282
471	116746
472	117212
473	117679
474	118146
475	118614
476	119083
477	119553
478	120023
479	120495
480	120968
481	121442
482	121917
483	122392
484	122870
485	123347
486	123828
487	124309
488	124790
489	125272
490	125755
491	126238
492	126723
493	127207
494	127693
495	128181
496	128669
497	129159
498	129649
499	130141
500	130633
f_looping
1	23
2	46
3	76
4	101
5	126
6	153
7	179
8	206
9	234
10	263
11	292
12	322
13	353
14	386
15	418
16	453
17	487
18	522
19	558
20	595
21	634
22	673
23	712
24	753
25	796
26	839
27	884
28	929
29	975
30	1022
31	1069
32	1117
33	1167
34	1219
35	1271
36	1324
37	1378
38	1433
39	1489
40	1545
41	1602
42	1660
43	1719
44	1779
45	1840
46	1901
47	1966
48	2034
49	2101
50	2169
51	2240
52	2311
53	2384
54	2457
55	2530
56	2605
57	2681
58	2758
59	2835
60	2914
61	2993
62	3073
63	3154
64	3236
65	3319
66	3403
67	3488
68	3573
69	3660
70	3748
71	3837
72	3926
73	4016
74	4107
75	4199
76	4293
77	4387
78	4482
79	4578
80	4676
81	4774
82	4873
83	4973
84	5074
85	5175
86	5279
87	5382
88	5486
89	5592
90	5699
91	5807
92	5915
93	6025
94	6135
95	6246
96	6359
97	6472
98	6586
99	6701
100	6816
101	6933
102	7052
103	7171
104	7291
105	7412
106	7534
107	7656
108	7780
109	7904
110	8030
111	8156
112	8283
113	8412
114	8541
115	8669
116	8799
117	8930
118	9062
119	9196
120	9331
121	9467
122	9603
123	9741
124	9880
125	10019
126	10159
127	10300
128	10443
129	10586
130	10729
131	10874
132	11020
133	11167
134	11315
135	11464
136	11614
137	11765
138	11916
139	12069
140	12222
141	12377
142	12532
143	12689
144	12845
145	13003
146	13162
147	13321
148	13481
149	13643
150	13806
151	13970
152	14135
153	14301
154	14467
155	14635
156	14804
157	14973
158	15143
159	15315
160	15487
161	15660
162	15834
163	16009
164	16185
165	16362
166	16539
167	16719
168	16899
169	17079
170	17259
171	17441
172	17625
173	17810
174	17995
175	18182
176	18370
177	18558
178	18748
179	18938
180	19129
181	19321
182	19514
183	19708
184	19903
185	20098
186	20295
187	20491
188	20690
189	20888
190	21088
191	21289
192	21491
193	21694
194	21897
195	22103
196	22309
197	22516
198	22723
199	22933
200	23143
201	23354
202	23567
203	23781
204	23996
205	24211
206	24427
207	24643
208	24861
209	25079
210	25298
211	25518
212	25740
213	25962
214	26186
215	26411
216	26637
217	26864
218	27091
219	27319
220	27548
221	27777
222	28008
223	28240
224	28472
225	28705
226	28939
227	29175
228	29411
229	29649
230	29887
231	30126
232	30472
233	30714
234	30956
235	31199
236	31442
237	31686
238	31931
239	32178
240	32425
241	32674
242	32923
243	33174
244	33425
245	33678
246	33931
247	34186
248	34441
249	34697
250	34955
251	35212
252	35470
253	35729
254	35991
255	36253
256	36515
257	36779
258	37042
259	37309
260	37575
261	37842
262	38109
263	38379
264	38649
265	38920
266	39192
267	39465
268	39739
269	40014
270	40290
271	40567
272	40844
273	41122
274	41402
275	41681
276	41962
277	42244
278	42528
279	42812
280	43098
281	43384
282	43671
283	43959
284	44248
285	44538
286	44829
287	45121
288	45414
289	45708
290	46003
291	46299
292	46595
293	46893
294	47192
295	47491
296	47791
297	48092
298	48395
299	48698
300	49002
301	49307
302	49614
303	49920
304	50227
305	50536
306	50846
307	51157
308	51469
309	51781
310	52094
311	52409
312	52724
313	53040
314	53356
315	53675
316	53994
317	54314
318	54635
319	54958
320	55280
321	55604
322	55929
323	56255
324	56582
325	56909
326	57236
327	57566
328	57897
329	58229
330	58561
331	58893
332	59227
333	59562
334	59898
335	60234
336	60572
337	60910
338	61250
339	61590
340	61932
341	62275
342	62619
343	62964
344	63309
345	63656
346	64003
347	64349
348	64698
349	65048
350	65400
351	65752
352	66104
353	66459
354	66814
355	67169
356	67525
357	67883
358	68242
359	68600
360	68960
361	69320
362	69681
363	70045
364	70408
365	70773
366	71139
367	71505
368	71873
369	72242
370	72612
371	72983
372	73355
373	73727
374	74100
375	74475
376	74851
377	75227
378	75605
379	75983
380	76364
381	76744
382	77126
383	77508
384	77891
385	78275
386	78660
387	79046
388	79433
389	79821
390	80210
391	80600
392	80991
393	81382
394	81774
395	82168
396	82562
397	82958
398	83355
399	83752
400	84151
401	84551
402	84951
403	85352
404	85754
405	86156
406	86560
407	86965
408	87370
409	87777
410	88184
411	88592
412	89002
413	89412
414	89824
415	90236
416	90649
417	91062
418	91477
419	91892
420	92309
421	92726
422	93145
423	93564
424	93984
425	94404
426	94827
427	95250
428	95676
429	96101
430	96526
431	96953
432	97380
433	97809
434	98239
435	98670
436	99102
437	99535
438	99969
439	100403
440	100839
441	101275
442	101713
443	102152
444	102591
445	103031
446	103473
447	103915
448	104358
449	104802
450	105246
451	105691
452	106138
453	106586
454	107035
455	107485
456	107935
457	108385
458	108837
459	109289
460	109744
461	110200
462	110656
463	111113
464	111571
465	112030
466	112489
467	112950
468	113412
469	113875
470	114339
471	114804
472	115270
473	115737
474	116205
475	116674
476	117143
477	117614
478	118085
479	118557
480	119031
481	119505
482	119980
483	120457
484	120936
485	121415
486	121895
487	122375
488	122857
489	123339
490	123821
491	124304
492	124790
493	125275
494	125761
495	126249
496	126738
497	127227
498	127718
499	128209
500	128700
1 5 10 10 5 1 
